id,created_at,updated_at,release,format,quantity
2ab72c08-103a-4a61-94b9-054e20b3d3cd,2020-10-24 08:24:05.143062,2020-10-24 09:02:01.423487,f93d4a64-6af1-33d7-ab8a-ad747bc56bf6,CD,1
1934b163-03c1-46da-83ee-79f56547fc56,2020-10-24 08:24:04.673722,2020-10-24 09:02:06.30837,53443745-4ac0-442e-bb59-30f15a1221c1,"7"" Vinyl",1
d83a73bb-2d26-3da1-9570-aa512f2b1cb2,2020-10-24 08:24:04.774123,2020-10-24 09:02:11.74319,d940501f-f503-3221-876c-a0b661debbf0,"12"" Vinyl",1
c2bc29b3-9fa3-381a-8df4-bb6eec006bc4,2020-10-24 08:24:04.701721,2020-10-24 09:02:16.366645,dbe63041-8d24-344a-bf17-e72aa2db08cc,"12"" Vinyl",1
7f5a1b9d-0ee4-4806-8595-78c2964fb06d,2020-10-24 08:24:04.668943,2020-10-24 09:02:21.373209,73075e86-07f9-353b-888f-ca8474741a8c,"12"" Vinyl",1
ae33ee27-bb61-4d7c-acf3-1c9563b66a83,2020-10-24 08:24:04.671661,2020-10-24 09:02:26.353179,f6d15b05-3c83-463b-a325-9afe54d9b97c,"7"" Vinyl",1
ece9a8f1-aa0f-4f1b-b4dd-81df9bf6bdfc,2020-10-24 08:09:36.461351,2020-10-24 09:25:40.684923,f93d4a64-6af1-33d7-ab8a-ad747bc56bf6,"12"" Vinyl",2
c26548d6-4c75-49c8-8a4d-72d184b6cde4,2020-10-25 21:02:30.22835,,3ffc64c6-e1fc-3ec7-9a47-f19c2afa978a,"12"" Vinyl",1
4bc45610-8e6a-48a8-ae05-913e984ffce3,2020-10-25 21:06:15.133597,,c294a5d3-12b8-405d-913a-8a60a3bb58cd,"12"" Vinyl",1
a7eef9ec-de0e-42e5-a0ca-9f88ea5e37f8,2020-10-25 21:20:26.504094,,5401516a-c2dd-3db3-9b25-960acb7fdad7,"12"" Vinyl",1
31e12e3c-4ec5-4ff3-9f56-ba50b786ed6e,2020-10-25 21:20:30.806608,,eb2ec8cf-0fe4-42d5-98be-9fb37701ad36,"7"" Vinyl",1
2986f158-89e9-42ac-9ce4-2f567f3bfcf6,2020-10-25 21:20:35.850152,,d4144302-ded6-4455-a7c1-79b609d9f7f2,"7"" Vinyl",1
161a1da7-fc0d-4acd-a481-9aa5dcaded7b,2020-10-25 21:20:40.8089,,4b377d0e-81a2-4e2d-9d1d-b7d0a5091020,"7"" Vinyl",1
55fc2945-1054-49a2-84ba-b4e205e20632,2020-10-25 21:20:46.15536,,4e71ec3c-3b4b-4e5a-bcd0-ca69e395c2fe,"7"" Vinyl",1
5ddc6134-70c0-4788-9be2-15a3cb831ac8,2020-10-25 21:20:50.89923,,c3b09bb1-18e6-4716-8c35-8bdadc8f6dea,"7"" Vinyl",1
267b3b36-d12a-4c16-b019-148abbccf496,2020-10-25 21:20:56.079147,,c3b09bb1-18e6-4716-8c35-8bdadc8f6dea,"12"" Vinyl",1
