id,updated_at,modified_at,title,iswc
0a1dba38-bf24-48b9-8a64-3926d8b3ac35,2020-10-24 08:09:36.538792,,Où c'est qu'j'ai mis mon flingue ?,
cb6a1239-5531-4ba7-953f-5abb9a2530c1,2020-10-24 08:09:36.639035,,Les Aventures de Gérard Lambert,
c0fd1089-368a-3b3d-a7e8-1227a1d89bc2,2020-10-24 08:09:36.767634,,Soleil immonde,
6291b061-dc2d-3ba6-95f1-9f0c88d10085,2020-10-24 08:09:37.213978,,La Chanson du loubard,
38147616-c506-4147-88bb-359b0375bcc6,2020-10-24 08:09:37.345968,,Chanson pour Pierrot,
eea88d4e-1ec3-4e87-94ea-ad0a106dbb5e,2020-10-24 08:09:37.436326,,Germaine,
8fd3c7ba-4d09-4e8a-9665-00ff220886aa,2020-10-24 08:09:37.494072,,Mon beauf',
dfa23f21-a84f-4994-bf9e-5852df4823c0,2020-10-24 08:09:37.578532,,À quelle heure on arrive ?,
677d2724-2106-45e1-b9f3-62c4a77dc252,2020-10-24 08:09:37.670811,,L'Auto-stoppeuse,
22354175-400e-4f7b-ab14-64af17b11eeb,2020-10-24 08:09:37.727933,,Le Retour de Gérard Lambert,
d130df91-c170-4c0d-b66e-82acb6202dda,2020-10-24 08:14:22.673231,,Étudiant - poil aux dents,
ba8d4ddc-06a6-3b20-8f15-fbf836c64490,2020-10-24 08:14:22.733404,,La Teigne,
411b1953-0556-48a5-97b5-93008ab525a6,2020-10-24 08:14:22.767344,,Le Père Noël noir,
0e30d5e6-1cba-45f6-a2b8-16c63119af43,2020-10-24 08:14:22.800558,,Banlieue rouge,
0437b807-ec81-406e-9bf8-af062f220d03,2020-10-24 08:14:22.8398,,La Blanche,
b7fc10fc-787e-4f1f-bcb9-618652503fad,2020-10-24 08:14:23.000485,,C'est mon dernier bal,
49551944-af2e-4242-bda2-2be23b2bb2e8,2020-10-24 08:14:23.159402,,Manu,
5046b18f-9326-4613-a94a-90576baec603,2020-10-24 08:14:23.204829,,J'ai raté télé-foot,
a80332cd-3313-3c08-95bc-7717fe8b9e4c,2020-10-24 08:14:23.301606,,Dans mon H.L.M.,
5b5289e3-c070-477b-8c56-f8fbe69a9b5d,2020-10-24 08:24:04.749245,,Ma gonzesse,
7a825aed-7383-49e8-b4ff-50397494065d,2020-10-24 08:24:04.773754,,"Viens chez moi, j'habite chez une copine",
e132e110-29db-34ce-94a3-26f836425591,2020-10-24 08:24:04.817009,,Dès que le vent soufflera…,
b410169f-7ec1-311a-8fa0-672b9e710ce4,2020-10-24 08:24:04.986244,,Marche à l'ombre,
e823e756-b03f-438e-9d04-b32a8cd3135a,2020-10-24 08:24:05.053743,,Sans dec’,
a92060b0-1449-401b-bf26-a2ede44e69d5,2020-10-24 08:24:05.103649,,P'tit déj' blues,
f0c79c69-7cfc-3a06-80bf-5c184c333a5c,2020-10-24 08:24:05.141172,,Deuxième génération,
98516743-e5d8-4813-8f16-915d1b48ee77,2020-10-24 08:24:05.26832,,La Tire à Dédé,
fd8c6c2a-ba2d-36b5-a9cf-dc4faf2cd77f,2020-10-24 08:24:05.570468,,Pochtron !,
38f8e014-e69a-48c1-865e-b62244f46e40,2020-10-24 08:24:05.64296,,Ch’timi rock,
ece9f5c9-1330-36cf-9c7d-117b3b330e17,2020-10-24 08:24:05.660413,,Morgane de toi (Amoureux de toi),
c2c6167a-b57c-4518-bfac-38c31aae12ba,2020-10-24 08:24:05.789734,,J’ai la vie qui m’pique les yeux,
3573502d-40dd-3fd9-8be9-2a9fe7f44a39,2020-10-24 08:24:05.808821,,Doudou s'en fout,
5a8ea7cf-e15e-31e5-a834-ce4531581c29,2020-10-24 08:24:05.959719,,En cloque,
b80a6adb-1876-4057-8c20-8e57d355ddee,2020-10-24 08:24:05.992208,,It Is Not Because You Are,
e8234067-da94-4763-85a0-b6f869b8306a,2020-10-24 08:24:06.041359,,Le Tango de Massy-Palaiseau,
c2d5ce98-1011-3033-b88e-a96f5429d3d4,2020-10-24 08:24:06.194152,,Ma chanson leur a pas plu…,
ecfd503d-63fe-4efc-a09e-f640ea029ffe,2020-10-24 08:24:06.338339,,Baston !,
b0db9a81-9d22-4a13-b797-c9c33ef2c574,2020-10-24 08:24:06.460565,,Mimi l'ennui,
4f10eea9-8708-37c7-928b-9d77a13d40e4,2020-10-24 08:24:06.481162,,Déserteur,
255d640a-711e-4841-bd57-c51a9ddefcfa,2020-10-24 08:24:06.57284,,Salut manouche,
c4de5929-a48e-3752-b0d7-c877019dc504,2020-10-24 08:24:06.59474,,Près des autos tamponneuses,
e0e9474d-20a5-3d18-ad5e-7995e93fc810,2020-10-24 08:24:06.732207,,Loulou,
191b30fa-a9c6-437d-b43d-21b0e78da22d,2020-10-24 08:24:06.759638,,Peau aime,
fa49fc16-b13d-4590-af6c-0c6503039f30,2020-10-24 08:24:06.778979,,Pourquoi d'abord ?,
61661e09-774d-3926-8ddb-23180b33bed1,2020-10-25 21:02:31.034545,,Débranche,
dbad1797-7106-3e4a-ba5d-0e8fb70cf0e1,2020-10-25 21:02:31.669116,,Calypso,
fae0f4b8-f12f-4e38-8799-56d88578c56e,2020-10-25 21:02:31.876227,,Tu comprendras quand tu seras plus jeune,
4a2d1125-e5fb-3f3d-a92d-193c84d87b28,2020-10-25 21:02:31.961684,,Hong-Kong star,
fff87f3e-a4ff-3940-b271-cd3f37c146c8,2020-10-25 21:02:32.080779,,Cézanne peint,
5d5c0ccf-2ee7-4e58-8338-5f7bb64734c3,2020-10-25 21:02:32.15026,,Savoir vivre,
315b7ad3-5060-4f53-9a3a-1d2660aa5262,2020-10-25 21:02:32.301651,,Si superficielle,
41804761-225a-49a4-af6b-daa10aadf2da,2020-10-25 21:02:32.524722,,Annie donne,
ac5a7acc-2c2e-365d-884b-d2d65514a990,2020-10-25 21:02:32.603859,,J'ai besoin de vous,
3d453af5-9828-4bd4-91b5-57d6882114e8,2020-10-25 21:06:15.227198,,Julien,
633c913c-9292-4e11-8903-d6096eeece1a,2020-10-25 21:06:15.421746,,Ô Seigneur Dieu (pourquoi m’as‐tu abandonnée),
ab0ee3d5-abfa-46f2-9633-9b389d1e0b15,2020-10-25 21:06:15.484436,,Je suis malade,
b4de4c55-61f1-3ff5-92e5-d8149fa800e3,2020-10-25 21:06:15.525541,,Vado via (je m’en vais),
6bd014a5-ae92-4039-a338-e356fa96497f,2020-10-25 21:06:15.615133,,"Paroles, paroles",
e3e12d0f-1745-4984-80bd-99534f5eb610,2020-10-25 21:06:15.675316,,Non ce n’est pas pour moi,
f264d03f-7b7c-3f27-a1ff-789663cb093d,2020-10-25 21:06:16.109935,,Il venait d’avoir 18 ans,
565ae95b-af8a-4a2a-9730-dcb9a5012601,2020-10-25 21:06:16.178287,,Soleil d’un nouveau monde,
91c20f9b-665c-4931-973f-7210ea8a497e,2020-10-25 21:06:16.275145,,Mais il y a l’accordéon,
f245b951-4e94-402d-bd9d-de651fbe688b,2020-10-25 21:06:16.384521,,Le Temps de mon père,
c9738b66-4644-4099-a458-ae07a19ae448,2020-10-25 21:06:16.483319,,Rien qu’un homme de plus,
7c97df36-c718-4629-9332-cc957f249dd8,2020-10-25 21:20:26.517372,,Mon fils ma bataille,
b0bb7049-2e9a-4e40-a848-4e2bdb410baa,2020-10-25 21:20:26.55109,,10.000 mètres,
5117151e-f542-4c5b-b686-2316ba6590e5,2020-10-25 21:20:26.573612,,Bateau toujours,
999b0a70-ac82-4190-9f86-64629710aa2e,2020-10-25 21:20:26.586151,,Lipstick polychrome,
b056bc09-95dc-432f-a09b-496a1301066c,2020-10-25 21:20:26.607619,,Je ne suis pas un héros,
7f75664a-a668-4da1-9f63-f48d2d22de6d,2020-10-25 21:20:26.668651,,Détournement,
6a54b62a-e659-4c2b-9382-b083f7fcb649,2020-10-25 21:20:26.681422,,La vie ne m’apprend rien,
3e97775b-2ecd-4955-85ae-29f70bb8e366,2020-10-25 21:20:26.694226,,Allez hop !,
04a82bcb-5151-4f34-9556-c2d00e95d2f2,2020-10-25 21:20:26.706797,,Mort d’un robot,
bd46668e-6814-45fd-a2d6-932b9e6d545b,2020-10-25 21:20:26.724069,,Un autre monde,
126d7d8a-6ab1-4300-b01c-ae7659cf0532,2020-10-25 21:20:35.857296,,Dieu que c’est beau,
5a523eab-477f-42df-a9e6-0abcd5dd0cb7,2020-10-25 21:20:35.872597,,La Muraille,
53cb1b18-c605-3673-9179-42f766b15754,2020-10-25 21:20:40.861134,,Sauver l’amour,
f4ca4551-b129-3b4b-94a1-bc9d4277d9d7,2020-10-25 21:20:40.875241,,Petite Angèle,
d1b891ff-3ff6-48ea-8634-e73d81a087ff,2020-10-25 21:20:46.16248,,Vivre ou survivre,
6ba761e5-aa77-44bc-9a0e-3621c6de9929,2020-10-25 21:20:46.180457,,La Fillette de l'étang,
f3f1c504-985c-3dc2-ab1c-eafd7dcdc442,2020-10-25 21:20:50.905909,,L’Aziza,
89022287-ae02-3cde-abc7-b3dd2aa2d3a8,2020-10-25 21:20:50.920247,,Tous les cris les S.O.S.,
ac412a92-6585-34a0-af92-8d56b9d1a212,2020-10-25 21:20:56.085999,,L’Aziza (remix),
