id,name,national_id,address
4d3da5cb-c533-4e1f-8b9b-9c9b7462332c,Théâtre municipal,331964,"(""rue Jules Ferry"",88110',,)"
6c5d86f7-1c55-4cff-a2ad-8b6999a12c0d,L'Espace Georges Sadoul,382423,"(""26 28 quai carnot"",88100,,)"
d2c3738c-b80f-44d0-8fd7-e610dbb030fd,L'Empire,382412,"(""22 quai Carnot"",88100,,)"
